Two times amendment injection strategy

injectionEnd: end times of the injections. time in days!
injectionType: specifies the type of injection during the corresponding episode: -99: water, 2: Amendment 3: Biofilm
injectionEnd [h], injectionType

EndTimes
0.00277778
0.00555556
27
33
37
41
47
49
61
61.00277778
67
76
83
98
113
132
142
148
163
172
800
#

InjectionTypes
3
2
-99
-99
-99
-99
-99
-99
-99
-99
-99
-99
-99
-99
-99
-99
-99
-99
-99
-99
-99
#
