Two times amendment injection strategy

injectionEnd: end times of the injections. time in days!
injectionType: specifies the type of injection during the corresponding episode: -99: no flow, 1: water, 2: Amendment
!!do NOT remove the # after the input data!
injectionEnd [h], injectionType

EndTimes
0.00277778
800
#

InjectionTypes
2
-99
#
